Intelligently Peruse Data • sift
…
The above code is somewhat unintelligible. Additionally, there is no straightforward way to accommodate UK & USA rows.

break_join() provides a simple interface leveraging functionality of dplyr::left_join() and findInterval().

break_join(us_uk_pop, us_uk_leaders, brk = c("date" = "start"))
#> Joining, by = "country"
#> # A tibble: 38 x 5
#>    country date       population name    party     
#>    <chr>   <date>          <int> <chr>   <chr>     
#>  1 USA     1995-01-20  268039654 Clinton Democratic
#>  2 USA     1996-01-20  271231546 Clinton Democratic
#>  3 USA     1997-01-19  274606475 Clinton Democratic
#>  4 USA     1998-01-20  278053607 Clinton Democratic
#>  5 USA     1999-01-20  281419130 Clinton Democratic
#>  6 USA     2000-01-19  284594395 Clinton Democratic
#>  7 USA     2001-01-18  287532638 Clinton Democratic
#>  8 USA     2002-01-19  290270187 Bush    Republican
#>  9 USA     2003-01-18  292883010 Bush    Republican
#> 10 USA     2004-01-17  295487267 Bush    Republican
#> # ... with 28 more rows
…
