Join tables based on overlapping intervals. — break_join • sift
…
    An object of the same type as x.

All x rows will be returned.

All columns between x and y are returned.

Rows in y are matched with x based on overlapping values of brk (e.g. findInterval(x$brk, y$brk, ...)).

    Examples

# joining USA + UK leaders with population time-series
break_join(us_uk_pop, us_uk_leaders, brk = c("date" = "start"))

#> Joining, by = "country"
#> # A tibble: 38 x 5
#>    country date       population name    party     
#>    <chr>   <date>          <int> <chr>   <chr>     
#>  1 USA     1995-01-20  268039654 Clinton Democratic
#>  2 USA     1996-01-20  271231546 Clinton Democratic
#>  3 USA     1997-01-19  274606475 Clinton Democratic
#>  4 USA     1998-01-20  278053607 Clinton Democratic
#>  5 USA     1999-01-20  281419130 Clinton Democratic
#>  6 USA     2000-01-19  284594395 Clinton Democratic
#>  7 USA     2001-01-18  287532638 Clinton Democratic
#>  8 USA     2002-01-19  290270187 Bush    Republican
#>  9 USA     2003-01-18  292883010 Bush    Republican
#> 10 USA     2004-01-17  295487267 Bush    Republican
#> # … with 28 more rows
…
# joining toll prices with vehicle time-series

library(mopac)
library(dplyr, warn.conflicts = FALSE)
library(hms)

express %>%
  mutate(time_hms = as_hms(time)) %>%
  break_join(rates, brk = c("time_hms" = "time"))

#> Joining, by = "direction"
#> # A tibble: 13,032 x 8
#>    direction time                plate  make  model  color time_hms         rate
#>    <chr>     <dttm>              <chr>  <chr> <chr>  <chr> <time>          <dbl>
#>  1 South     2020-05-20 05:00:16 QQA-8… Niss… 370Z   Black 05:00:16.368764   0.3
#>  2 South     2020-05-20 05:01:03 SCI-0… Honda CR-V   Silv… 05:01:03.922048   0.3
#>  3 South     2020-05-20 05:02:41 OYK-5… Toyo… Tocoma White 05:02:41.888414   0.3
#>  4 South     2020-05-20 05:03:27 JRM-6… Honda Odyss… Grey  05:03:27.663681   0.3
#>  5 South     2020-05-20 05:04:26 WDM-0… Kia   Spect… Silv… 05:04:26.563126   0.3
#>  6 South     2020-05-20 05:04:39 NTL-6… Ford  Crown… Beige 05:04:39.515668   0.3
#>  7 South     2020-05-20 05:04:45 KTV-6… Chevy Subur… White 05:04:45.005646   0.3
#>  8 South     2020-05-20 05:04:55 RBF-4… Infi… QX60   Grey  05:04:55.798650   0.3
#>  9 South     2020-05-20 05:10:03 EJA-0… Chevy Corve… Red   05:10:03.480803   0.3
#> 10 South     2020-05-20 05:10:20 IVO-8… Chevy Kodiak White 05:10:20.841872   0.3
#> # … with 13,022 more rows
…
