Introducing conjecture • sift
…
conjecture() is the black swan of the sift family. If you encounter the type of eccentric datasets conjecture is designed to tackle, you’ll be glad you read this vignette.

At its heart, conjecture is a reshaping operation similar to tidyr::pivot_wider(). However, the intended application for conjecture is more idiosyncratic than that of pivot_wider. This vignette illustrates the basic aspects of such an application.

Example 1: Radio Transmissions

The comms dataset contains a time-series of radio transmissions.

library(sift)
library(dplyr)
library(tidyr)

comms
#> # A tibble: 50,000 x 4
#>    station timestamp           msg_code type   
#>    <chr>   <dttm>                 <int> <chr>  
#>  1 D       1999-01-21 03:37:57     2537 send   
#>  2 C       1999-01-24 11:52:07      720 send   
#>  3 D       1999-01-25 03:12:31     1332 receive
#>  4 D       1999-01-25 11:46:18     2959 receive
#>  5 B       1999-01-25 13:43:17      512 receive
#>  6 A       1999-01-25 19:08:25     2197 receive
#>  7 B       1999-01-25 19:26:43      986 receive
#>  8 A       1999-01-25 23:13:40     2851 receive
#>  9 B       1999-01-26 04:04:34     2108 receive
#> 10 D       1999-01-26 11:50:58     2531 send   
#> # … with 49,990 more rows
…
Dataset to reshape (comms).

Column, as a symbol, used to measure distance between observations (timestamp).

Column, as a symbol, that demarks observations as anterior or posterior (type).

Scalar quantity signifying anterior observation ("send").

comms_conjecture <- conjecture(comms,     # dataset to reshape.
                               timestamp, # <dttm> friendly. must be coercible to numeric.
                               type,      # any type of atomic vector is fine.
                               "send")    # we could flip our logic and supply "receive" instead.

comms_conjecture
#> # A tibble: 24,958 x 4
#>    station msg_code send                receive            
#>    <chr>      <int> <dttm>              <dttm>             
#>  1 D           2537 1999-01-21 03:37:57 1999-02-15 21:56:29
#>  2 C            720 1999-01-24 11:52:07 1999-02-22 12:24:57
#>  3 D           2531 1999-01-26 11:50:58 1999-02-09 07:14:33
#>  4 D           2992 1999-01-27 02:48:56 1999-02-22 12:05:55
#>  5 A           2262 1999-01-27 09:19:56 1999-02-11 19:43:42
#>  6 B           1785 1999-01-27 12:11:04 1999-02-07 03:07:50
#>  7 C           1624 1999-01-27 15:33:09 1999-02-20 05:07:54
#>  8 C           2280 1999-01-27 20:06:18 1999-02-18 11:25:13
#>  9 B           1170 1999-01-28 00:55:33 NA                 
#> 10 B           2137 1999-01-28 02:30:30 1999-02-26 17:13:21
#> # … with 24,948 more rows

We can partially achieve the same result with pivot_wider.

comms_pivot <- comms %>% 
  pivot_wider(names_from = type,
              values_from = timestamp,
              values_fn = first) %>% 
  filter(receive > send)

comms_pivot
#> # A tibble: 4,734 x 4
#>    station msg_code send                receive            
#>    <chr>      <int> <dttm>              <dttm>             
#>  1 D           2537 1999-01-21 03:37:57 1999-02-15 21:56:29
#>  2 C            720 1999-01-24 11:52:07 1999-02-22 12:24:57
#>  3 D           2531 1999-01-26 11:50:58 1999-02-09 07:14:33
#>  4 D           2992 1999-01-27 02:48:56 1999-02-22 12:05:55
#>  5 A           2262 1999-01-27 09:19:56 1999-02-11 19:43:42
#>  6 B           1785 1999-01-27 12:11:04 1999-02-07 03:07:50
#>  7 C           1624 1999-01-27 15:33:09 1999-02-20 05:07:54
#>  8 C           2280 1999-01-27 20:06:18 1999-02-18 11:25:13
#>  9 B           2137 1999-01-28 02:30:30 1999-02-26 17:13:21
#> 10 A            924 1999-01-28 18:41:03 1999-02-17 04:50:19
#> # … with 4,724 more rows

Notice that pivot_wider produces 4734 rows compared to 24958 in comms_conjecture. What pairs are found in comms_conjecture that aren’t captured in comms_pivot?

First, there a quite a few transmissions that do not elicit a response. conjecture doesn’t sweep these under the rug.

comms_pivot %>% 
  filter(is.na(receive))
#> # A tibble: 0 x 4
#> # … with 4 variables: station <chr>, msg_code <int>, send <dttm>,
#> #   receive <dttm>

comms_conjecture %>% 
  filter(is.na(receive))
#> # A tibble: 10,857 x 4
#>    station msg_code send                receive            
#>    <chr>      <int> <dttm>              <dttm>             
#>  1 B           1170 1999-01-28 00:55:33 NA                 
#>  2 D           2258 1999-01-28 19:32:47 NA                 
#>  3 D           1519 1999-01-29 02:38:16 NA                 
#>  4 C           1799 1999-01-29 13:02:48 NA                 
#>  5 A            132 1999-01-29 18:21:29 NA                 
#>  6 C           1542 1999-01-30 04:57:17 NA                 
#>  7 B            791 1999-01-30 05:08:52 NA                 
#>  8 A           1548 1999-01-30 11:09:38 NA                 
#>  9 A            100 1999-01-30 15:55:40 NA                 
#> 10 C           2900 1999-01-30 20:18:50 NA                 
#> # … with 10,847 more rows
…
Example 2: Toll Lane Records

The express dataset contains toll records for northbound and southbound vehicles over the course of one business day.

library(readr)

express <- read_csv("https://raw.githubusercontent.com/sccmckenzie/mopac/master/inst/extdata/express.csv", locale = locale(tz = "US/Central"))

express
#> # A tibble: 13,032 x 6
#>    direction time                plate    make       model    color 
#>    <chr>     <dttm>              <chr>    <chr>      <chr>    <chr> 
#>  1 North     2020-05-20 05:00:33 DZR-4059 Mercedes   S-Series Black 
#>  2 North     2020-05-20 05:01:13 GRG-4300 Nissan     Altima   Grey  
#>  3 North     2020-05-20 05:03:47 QZS-2886 Mazda      6        White 
#>  4 North     2020-05-20 05:04:54 OHK-3972 BMW        i1       White 
#>  5 North     2020-05-20 05:10:41 EAS-1671 Ford       F-250    Silver
#>  6 North     2020-05-20 05:13:53 OKP-7589 Dodge      Journey  White 
#>  7 North     2020-05-20 05:13:55 HNN-1298 Volkswagen Passat   Grey  
#>  8 North     2020-05-20 05:15:59 EWL-6179 Toyota     Venza    Grey  
#>  9 North     2020-05-20 05:16:01 YVH-4374 GMC        Safari   White 
#> 10 North     2020-05-20 05:18:16 DLU-6055 Nissan     Titan    Blue  
#> # … with 13,022 more rows

Suppose we are interested in vehicles using the express lane both North and South (i.e. commuting to work). It’s up to us to designate an anterior direction. If we are only interested in vehicles commuting downtown, we set names_first = "South".

conjecture(express, time, direction, "South") %>% 
  drop_na() # We can't assume incomplete pairs are commuting to downtown
#> # A tibble: 1,069 x 6
#>    plate    make      model        color South               North              
#>    <chr>    <chr>     <chr>        <chr> <dttm>              <dttm>             
#>  1 QQA-8430 Nissan    370Z         Black 2020-05-20 05:00:16 2020-05-20 14:29:06
#>  2 NTL-6850 Ford      Crown Victo… Beige 2020-05-20 05:04:39 2020-05-20 18:09:47
#>  3 RBF-4890 Infiniti  QX60         Grey  2020-05-20 05:04:55 2020-05-20 16:32:07
#>  4 FDX-4994 Ford      Fusion       Grey  2020-05-20 05:12:38 2020-05-20 15:40:54
#>  5 DFF-5919 Honda     Accord       White 2020-05-20 05:14:32 2020-05-20 12:41:54
#>  6 CWW-1823 Porsche   Panamera     Black 2020-05-20 05:19:57 2020-05-20 16:15:45
#>  7 GRZ-3678 Volkswag… Eos          Red   2020-05-20 05:21:23 2020-05-20 17:53:49
#>  8 VMV-7990 Mercedes  GE-Class     Black 2020-05-20 05:23:14 2020-05-20 15:42:00
#>  9 YDR-9931 Mazda     3            White 2020-05-20 05:25:51 2020-05-20 14:46:11
#> 10 BWC-4843 Alfa Rom… Giulia       Red   2020-05-20 05:30:50 2020-05-20 16:34:49
#> # … with 1,059 more rows
…
